<svg width="90" height="17" viewBox="0 0 90 17" fill="none" xmlns="http://www.w3.org/2000/svg">
<path d="M20.9709 12.354C20.9709 15.199 18.6931 16.6019 14.1377 16.6019H1.06033C0.353442 16.6019 0 16.2512 0 15.5107V1.05224C0 0.350746 0.353442 1.77292e-06 1.06033 1.77292e-06H14.1377C18.6931 1.77292e-06 20.9709 1.40298 20.9709 4.24792V12.354ZM3.06316 14.1078H14.0591C15.3943 14.1078 16.4154 13.9129 17.0437 13.5622C17.6721 13.2114 17.9863 12.7827 17.9863 12.3151V4.24792C17.9863 3.74129 17.6721 3.3126 17.0437 2.96185C16.4154 2.6111 15.4336 2.45522 14.0591 2.45522H3.06316V14.1078Z" fill="white"/>
<path d="M38.7553 7.18131H52.9923V1.04245C52.9923 0.617748 53.105 0.308873 53.3679 0.193046C53.6309 0.0386092 53.969 0 54.4573 0C54.9456 0 55.2837 0.0772183 55.5467 0.193046C55.8096 0.347483 55.9223 0.617748 55.9223 1.04245V15.5595C55.9223 15.9842 55.8096 16.2931 55.5467 16.4089C55.2837 16.5633 54.9456 16.6019 54.4573 16.6019C53.969 16.6019 53.5933 16.5247 53.3679 16.4089C53.105 16.2545 52.9923 15.9842 52.9923 15.5595V9.65229H38.7553V15.5595C38.7553 15.9842 38.6426 16.2931 38.3796 16.4089C38.1167 16.5633 37.7786 16.6019 37.2903 16.6019C36.8019 16.6019 36.4638 16.5247 36.2009 16.4089C35.9379 16.2545 35.8252 15.9842 35.8252 15.5595V1.04245C35.8252 0.617748 35.9379 0.308873 36.2009 0.193046C36.4638 0.0386092 36.8019 0 37.2903 0C37.7786 0 38.1543 0.0772183 38.3796 0.193046C38.6426 0.347483 38.7553 0.617748 38.7553 1.04245V7.18131Z" fill="white"/>
<path d="M77.6733 16.5244C73.0756 16.5244 70.7767 15.1279 70.7767 12.2963V4.22807C70.7767 1.39643 73.0756 1.77014e-06 77.6733 1.77014e-06H89.0884C89.4451 1.77014e-06 89.7225 0.116369 89.8415 0.310317C89.9604 0.504265 90 0.814582 90 1.24127C90 1.66795 89.9604 1.97827 89.8415 2.17222C89.7225 2.36617 89.4847 2.48254 89.0884 2.48254H77.7526C76.3653 2.48254 75.3744 2.63769 74.7799 2.9868C74.1457 3.3359 73.8286 3.76259 73.8286 4.26686V12.3351C73.8286 12.8394 74.1457 13.2273 74.7799 13.5764C75.4141 13.9255 76.405 14.1194 77.7526 14.1194H89.0884C89.4451 14.1194 89.6829 14.2358 89.8018 14.4297C89.9207 14.6237 89.9604 14.934 89.9604 15.3607C89.9604 15.7486 89.9207 16.0589 89.8018 16.2916C89.6829 16.4856 89.4451 16.6019 89.0884 16.6019H77.6733V16.5244Z" fill="white"/>
</svg>
